________     _____________            _________      _____                      _____                      _____              
___  __ \__________  /__(_)_______    ______  /_____ __  /______ _   _______ ______(_)______ _____________ __  /______________
__  /_/ /  _ \  __  /__  /__  ___/    _  __  /_  __ `/  __/  __ `/   __  __ `__ \_  /__  __ `/_  ___/  __ `/  __/  __ \_  ___/
_  _, _//  __/ /_/ / _  / _(__  )     / /_/ / / /_/ // /_ / /_/ /    _  / / / / /  / _  /_/ /_  /   / /_/ // /_ / /_/ /  /    
/_/ |_| \___/\__,_/  /_/  /____/      \__,_/  \__,_/ \__/ \__,_/     /_/ /_/ /_//_/  _\__, / /_/    \__,_/ \__/ \____//_/     
                                                                                     /____/                             